{
  "_note1": "KEEP THIS FILE! Check it into a version control system (VCS) like git.",
  "_note2": "ObjectBox manages crucial IDs for your object model. See docs for details.",
  "_note3": "If you have VCS merge conflicts, you must resolve them according to ObjectBox docs.",
  "entities": [
    {
      "id": "4:7050950484754634163",
      "lastPropertyId": "8:8153112778367434417",
      "name": "Place",
      "properties": [
        {
          "id": "1:3487952123818122021",
          "name": "id"
        },
        {
          "id": "2:5327015627392943625",
          "name": "lat"
        },
        {
          "id": "3:1311843634339105293",
          "name": "lng"
        },
        {
          "id": "4:8619034012805784501",
          "name": "tms"
        },
        {
          "id": "5:6684122577481831856",
          "name": "rate"
        },
        {
          "id": "6:5386126520551558937",
          "name": "title"
        },
        {
          "id": "7:4640633337960299945",
          "name": "address"
        },
        {
          "id": "8:8153112778367434417",
          "name": "description"
        }
      ],
      "relations": []
    }
  ],
  "lastEntityId": "4:7050950484754634163",
  "lastIndexId": "0:0",
  "lastRelationId": "0:0",
  "lastSequenceId": "0:0",
  "modelVersion": 4,
  "modelVersionParserMinimum": 4,
  "retiredEntityUids": [
    8653470470826889063,
    1446428507111814734,
    6250646394763856267
  ],
  "retiredIndexUids": [],
  "retiredPropertyUids": [
    6240773295813798720,
    8828490462536237888,
    7859096924540999422,
    320776369820110732,
    7144168030734790843,
    911506937939229346,
    2986151707696759153,
    729594067369952828,
    5075706565221984936,
    5913866552310469508,
    6211256455032486188,
    67419959334899396,
    4196723143412730857,
    2215144822007559853
  ],
  "retiredRelationUids": [],
  "version": 1
}